Maia Chavez – index
…
Alternative hypothesis: Feeding your chicks casein will increase the weight of the chicks

casein <- chickwts |>
  mutate(feed= fct_collapse(feed, other = c("linseed", "sunflower", "soybean", "horsebean", "meatmeal")))

casein$weight2 <- ifelse(casein$weight > 265, 'HIGH', 'LOW')
casein_final <- tibble(casein |>
  select(feed, weight2) |>
  mutate(weight = as.factor(weight2)) |>
  select(-weight2))

casein_final 

# A tibble: 71 × 2
   feed  weight
   <fct> <fct> 
 1 other LOW   
 2 other LOW   
 3 other LOW   
 4 other LOW   
 5 other LOW   
 6 other LOW   
 7 other LOW   
 8 other LOW   
 9 other LOW   
10 other LOW   
# ℹ 61 more rows
…
