Maia Chavez - Mini Project 3
…
complex <- sephora |>
  select(brand, description, product, name, specific)|>
  mutate(fair = 
           ifelse((str_detect(description, "[Ff]air")|str_detect(description, "\\b[Ll]ight")|str_detect(description, "[Mm]edium") |str_detect(description, "[Pp]ale")), 1, 0), 
         deep = ifelse((str_detect(description, "[Dd]eep")|str_detect(description, "[Tt]an")|str_detect(description, "[Rr]ich")|str_detect(description, "[Dd]ark")), 
                       1, 0)) |>
  group_by(product)|>
  summarise(prop_fair= mean(fair), prop_deep= mean(deep))|>
  filter(str_detect(prop_fair, "0\\.\\d*"), str_detect(prop_deep, "0\\.\\d*")) |>
 arrange(desc(prop_fair))

complex

# A tibble: 158 × 3
   product                                                   prop_fair prop_deep
   <chr>                                                         <dbl>     <dbl>
 1 Silk Crème Moisturizing Photo Edition Foundation              0.938    0.25  
 2 Silk Crème Oil Free Photo Edition Foundation                  0.938    0.25  
 3 Matissime Velvet Radiant Mattifying Fluid Foundation SPF…     0.917    0.417 
 4 The Luminous Lifting Cushion Foundation SPF 20 + Refill       0.917    0.0833
 5 Immaculate® Liquid Powder Foundation Mattifying Oil Free      0.909    0.273 
 6 Vanish™ Seamless Finish Foundation Stick                      0.906    0.344 
 7 Vanish™ Seamless Finish Liquid Foundation                     0.906    0.344 
 8 Diorskin Forever Undercover Foundation                        0.9      0.25  
 9 Pure Radiant Tinted Moisturizer Broad Spectrum SPF 30         0.9      0.4   
10 Teint Couture Everwear 24H Foundation SPF 20                  0.9      0.367 
# ℹ 148 more rows
…
