Maia Chavez - Mini Project 2
…
I am starting out by using the chickwts data set described above. I am making a tibble for me to use in testing my hypothesis. For the purposes of this analysis I am classifying the chick weights as high if they are in the top 50% of weights and low if they are in the bottom 50% of weights. I am also lumping the other types of feed into one category to be my “control”. Essentially this will compare the weights of the chickens on casein feed to the weights of the chickens on other feeds.

casein <- chickwts |>
  mutate(feed= fct_collapse(feed, other = c("linseed", "sunflower", "soybean", "horsebean", "meatmeal")))

casein$weight2 <- ifelse(casein$weight > 265, 'HIGH', 'LOW')
casein_final <- tibble(casein |>
  select(feed, weight2) |>
  mutate(weight = as.factor(weight2)) |>
  select(-weight2))

casein_final 

# A tibble: 71 × 2
   feed  weight
   <fct> <fct> 
 1 other LOW   
 2 other LOW   
 3 other LOW   
 4 other LOW   
 5 other LOW   
 6 other LOW   
 7 other LOW   
 8 other LOW   
 9 other LOW   
10 other LOW   
# ℹ 61 more rows
…
